solid
 facet normal -1.000000e+00 -0.000000e+00  0.000000e+00
   outer loop
     vertex  0.000000e+00  3.000000e+02  1.000000e-01
     vertex  0.000000e+00  0.000000e+00  0.000000e+00
     vertex  0.000000e+00  0.000000e+00  1.000000e-01
   endloop
 endfacet
 facet normal -1.000000e+00  0.000000e+00  0.000000e+00
   outer loop
     vertex  0.000000e+00  3.000000e+02  0.000000e+00
     vertex  0.000000e+00  0.000000e+00  0.000000e+00
     vertex  0.000000e+00  3.000000e+02  1.000000e-01
   endloop
 endfacet
 facet normal  0.000000e+00 -1.000000e+00  0.000000e+00
   outer loop
     vertex  0.000000e+00  0.000000e+00  1.000000e-01
     vertex  3.000000e+02  0.000000e+00  0.000000e+00
     vertex  3.000000e+02  0.000000e+00  1.000000e-01
   endloop
 endfacet
 facet normal  0.000000e+00 -1.000000e+00  0.000000e+00
   outer loop
     vertex  0.000000e+00  0.000000e+00  0.000000e+00
     vertex  3.000000e+02  0.000000e+00  0.000000e+00
     vertex  0.000000e+00  0.000000e+00  1.000000e-01
   endloop
 endfacet
 facet normal  0.000000e+00  1.000000e+00 -0.000000e+00
   outer loop
     vertex  3.000000e+02  3.000000e+02  1.000000e-01
     vertex  0.000000e+00  3.000000e+02  0.000000e+00
     vertex  0.000000e+00  3.000000e+02  1.000000e-01
   endloop
 endfacet
 facet normal  0.000000e+00  1.000000e+00 -0.000000e+00
   outer loop
     vertex  3.000000e+02  3.000000e+02  0.000000e+00
     vertex  0.000000e+00  3.000000e+02  0.000000e+00
     vertex  3.000000e+02  3.000000e+02  1.000000e-01
   endloop
 endfacet
 facet normal  0.000000e+00  0.000000e+00 -1.000000e+00
   outer loop
     vertex  2.060000e+02  1.940000e+02  0.000000e+00
     vertex  2.060000e+02  2.060000e+02  0.000000e+00
     vertex  2.940000e+02  2.060000e+02  0.000000e+00
   endloop
 endfacet
 facet normal  0.000000e+00  0.000000e+00 -1.000000e+00
   outer loop
     vertex  2.940000e+02  1.940000e+02  0.000000e+00
     vertex  2.060000e+02  1.940000e+02  0.000000e+00
     vertex  2.940000e+02  2.060000e+02  0.000000e+00
   endloop
 endfacet
 facet normal  0.000000e+00  0.000000e+00 -1.000000e+00
   outer loop
     vertex  2.940000e+02  2.060000e+02  0.000000e+00
     vertex  2.940000e+02  2.940000e+02  0.000000e+00
     vertex  3.000000e+02  3.000000e+02  0.000000e+00
   endloop
 endfacet
 facet normal  0.000000e+00  0.000000e+00 -1.000000e+00
   outer loop
     vertex  2.940000e+02  2.940000e+02  0.000000e+00
     vertex  2.060000e+02  2.940000e+02  0.000000e+00
     vertex  3.000000e+02  3.000000e+02  0.000000e+00
   endloop
 endfacet
 facet normal -0.000000e+00  0.000000e+00 -1.000000e+00
   outer loop
     vertex  6.000000e+00  9.400000e+01  0.000000e+00
     vertex  0.000000e+00  0.000000e+00  0.000000e+00
     vertex  0.000000e+00  3.000000e+02  0.000000e+00
   endloop
 endfacet
 facet normal  0.000000e+00  0.000000e+00 -1.000000e+00
   outer loop
     vertex  0.000000e+00  0.000000e+00  0.000000e+00
     vertex  6.000000e+00  6.000000e+00  0.000000e+00
     vertex  9.400000e+01  6.000000e+00  0.000000e+00
   endloop
 endfacet
 facet normal -0.000000e+00 -0.000000e+00 -1.000000e+00
   outer loop
     vertex  6.000000e+00  1.060000e+02  0.000000e+00
     vertex  6.000000e+00  9.400000e+01  0.000000e+00
     vertex  0.000000e+00  3.000000e+02  0.000000e+00
   endloop
 endfacet
 facet normal -0.000000e+00 -0.000000e+00 -1.000000e+00
   outer loop
     vertex  6.000000e+00  1.940000e+02  0.000000e+00
     vertex  6.000000e+00  1.060000e+02  0.000000e+00
     vertex  0.000000e+00  3.000000e+02  0.000000e+00
   endloop
 endfacet
 facet normal -0.000000e+00 -0.000000e+00 -1.000000e+00
   outer loop
     vertex  6.000000e+00  2.060000e+02  0.000000e+00
     vertex  6.000000e+00  1.940000e+02  0.000000e+00
     vertex  0.000000e+00  3.000000e+02  0.000000e+00
   endloop
 endfacet
 facet normal -0.000000e+00 -0.000000e+00 -1.000000e+00
   outer loop
     vertex  1.940000e+02  6.000000e+00  0.000000e+00
     vertex  3.000000e+02  0.000000e+00  0.000000e+00
     vertex  0.000000e+00  0.000000e+00  0.000000e+00
   endloop
 endfacet
 facet normal -0.000000e+00  0.000000e+00 -1.000000e+00
   outer loop
     vertex  6.000000e+00  6.000000e+00  0.000000e+00
     vertex  0.000000e+00  0.000000e+00  0.000000e+00
     vertex  6.000000e+00  9.400000e+01  0.000000e+00
   endloop
 endfacet
 facet normal  0.000000e+00 -0.000000e+00 -1.000000e+00
   outer loop
     vertex  1.060000e+02  6.000000e+00  0.000000e+00
     vertex  1.940000e+02  6.000000e+00  0.000000e+00
     vertex  0.000000e+00  0.000000e+00  0.000000e+00
   endloop
 endfacet
 facet normal  0.000000e+00  0.000000e+00 -1.000000e+00
   outer loop
     vertex  9.400000e+01  2.940000e+02  0.000000e+00
     vertex  0.000000e+00  3.000000e+02  0.000000e+00
     vertex  3.000000e+02  3.000000e+02  0.000000e+00
   endloop
 endfacet
 facet normal  0.000000e+00  0.000000e+00 -1.000000e+00
   outer loop
     vertex  1.060000e+02  2.940000e+02  0.000000e+00
     vertex  9.400000e+01  2.940000e+02  0.000000e+00
     vertex  3.000000e+02  3.000000e+02  0.000000e+00
   endloop
 endfacet
 facet normal  0.000000e+00  0.000000e+00 -1.000000e+00
   outer loop
     vertex  1.940000e+02  2.940000e+02  0.000000e+00
     vertex  1.060000e+02  2.940000e+02  0.000000e+00
     vertex  3.000000e+02  3.000000e+02  0.000000e+00
   endloop
 endfacet
 facet normal  0.000000e+00  0.000000e+00 -1.000000e+00
   outer loop
     vertex  2.060000e+02  2.940000e+02  0.000000e+00
     vertex  1.940000e+02  2.940000e+02  0.000000e+00
     vertex  3.000000e+02  3.000000e+02  0.000000e+00
   endloop
 endfacet
 facet normal  0.000000e+00  0.000000e+00 -1.000000e+00
   outer loop
     vertex  2.940000e+02  2.060000e+02  0.000000e+00
     vertex  3.000000e+02  3.000000e+02  0.000000e+00
     vertex  3.000000e+02  0.000000e+00  0.000000e+00
   endloop
 endfacet
 facet normal  0.000000e+00  0.000000e+00 -1.000000e+00
   outer loop
     vertex  2.940000e+02  1.940000e+02  0.000000e+00
     vertex  2.940000e+02  2.060000e+02  0.000000e+00
     vertex  3.000000e+02  0.000000e+00  0.000000e+00
   endloop
 endfacet
 facet normal  0.000000e+00  0.000000e+00 -1.000000e+00
   outer loop
     vertex  0.000000e+00  0.000000e+00  0.000000e+00
     vertex  9.400000e+01  6.000000e+00  0.000000e+00
     vertex  1.060000e+02  6.000000e+00  0.000000e+00
   endloop
 endfacet
 facet normal  0.000000e+00  0.000000e+00 -1.000000e+00
   outer loop
     vertex  2.940000e+02  1.060000e+02  0.000000e+00
     vertex  2.940000e+02  1.940000e+02  0.000000e+00
     vertex  3.000000e+02  0.000000e+00  0.000000e+00
   endloop
 endfacet
 facet normal  0.000000e+00  0.000000e+00 -1.000000e+00
   outer loop
     vertex  2.940000e+02  9.400000e+01  0.000000e+00
     vertex  2.940000e+02  1.060000e+02  0.000000e+00
     vertex  3.000000e+02  0.000000e+00  0.000000e+00
   endloop
 endfacet
 facet normal  0.000000e+00  0.000000e+00 -1.000000e+00
   outer loop
     vertex  9.400000e+01  9.400000e+01  0.000000e+00
     vertex  6.000000e+00  9.400000e+01  0.000000e+00
     vertex  9.400000e+01  1.060000e+02  0.000000e+00
   endloop
 endfacet
 facet normal  0.000000e+00  0.000000e+00 -1.000000e+00
   outer loop
     vertex  6.000000e+00  9.400000e+01  0.000000e+00
     vertex  6.000000e+00  1.060000e+02  0.000000e+00
     vertex  9.400000e+01  1.060000e+02  0.000000e+00
   endloop
 endfacet
 facet normal  0.000000e+00  0.000000e+00 -1.000000e+00
   outer loop
     vertex  9.400000e+01  6.000000e+00  0.000000e+00
     vertex  9.400000e+01  9.400000e+01  0.000000e+00
     vertex  1.060000e+02  9.400000e+01  0.000000e+00
   endloop
 endfacet
 facet normal  0.000000e+00  0.000000e+00 -1.000000e+00
   outer loop
     vertex  9.400000e+01  9.400000e+01  0.000000e+00
     vertex  9.400000e+01  1.060000e+02  0.000000e+00
     vertex  1.060000e+02  9.400000e+01  0.000000e+00
   endloop
 endfacet
 facet normal  0.000000e+00  0.000000e+00 -1.000000e+00
   outer loop
     vertex  1.060000e+02  6.000000e+00  0.000000e+00
     vertex  9.400000e+01  6.000000e+00  0.000000e+00
     vertex  1.060000e+02  9.400000e+01  0.000000e+00
   endloop
 endfacet
 facet normal  0.000000e+00  0.000000e+00 -1.000000e+00
   outer loop
     vertex  1.060000e+02  9.400000e+01  0.000000e+00
     vertex  9.400000e+01  1.060000e+02  0.000000e+00
     vertex  1.060000e+02  1.060000e+02  0.000000e+00
   endloop
 endfacet
 facet normal  0.000000e+00  0.000000e+00 -1.000000e+00
   outer loop
     vertex  9.400000e+01  1.940000e+02  0.000000e+00
     vertex  6.000000e+00  1.940000e+02  0.000000e+00
     vertex  9.400000e+01  2.060000e+02  0.000000e+00
   endloop
 endfacet
 facet normal  0.000000e+00  0.000000e+00 -1.000000e+00
   outer loop
     vertex  6.000000e+00  1.940000e+02  0.000000e+00
     vertex  6.000000e+00  2.060000e+02  0.000000e+00
     vertex  9.400000e+01  2.060000e+02  0.000000e+00
   endloop
 endfacet
 facet normal  0.000000e+00  0.000000e+00 -1.000000e+00
   outer loop
     vertex  1.940000e+02  6.000000e+00  0.000000e+00
     vertex  1.940000e+02  9.400000e+01  0.000000e+00
     vertex  2.060000e+02  9.400000e+01  0.000000e+00
   endloop
 endfacet
 facet normal  0.000000e+00  0.000000e+00 -1.000000e+00
   outer loop
     vertex  2.060000e+02  6.000000e+00  0.000000e+00
     vertex  1.940000e+02  6.000000e+00  0.000000e+00
     vertex  2.060000e+02  9.400000e+01  0.000000e+00
   endloop
 endfacet
 facet normal  0.000000e+00  0.000000e+00 -1.000000e+00
   outer loop
     vertex  9.400000e+01  1.060000e+02  0.000000e+00
     vertex  9.400000e+01  1.940000e+02  0.000000e+00
     vertex  1.060000e+02  1.940000e+02  0.000000e+00
   endloop
 endfacet
 facet normal  0.000000e+00  0.000000e+00 -1.000000e+00
   outer loop
     vertex  1.060000e+02  1.060000e+02  0.000000e+00
     vertex  9.400000e+01  1.060000e+02  0.000000e+00
     vertex  1.060000e+02  1.940000e+02  0.000000e+00
   endloop
 endfacet
 facet normal  0.000000e+00  0.000000e+00 -1.000000e+00
   outer loop
     vertex  9.400000e+01  1.940000e+02  0.000000e+00
     vertex  9.400000e+01  2.060000e+02  0.000000e+00
     vertex  1.060000e+02  1.940000e+02  0.000000e+00
   endloop
 endfacet
 facet normal  0.000000e+00  0.000000e+00 -1.000000e+00
   outer loop
     vertex  2.060000e+02  6.000000e+00  0.000000e+00
     vertex  2.940000e+02  6.000000e+00  0.000000e+00
     vertex  3.000000e+02  0.000000e+00  0.000000e+00
   endloop
 endfacet
 facet normal  0.000000e+00  0.000000e+00 -1.000000e+00
   outer loop
     vertex  1.940000e+02  6.000000e+00  0.000000e+00
     vertex  2.060000e+02  6.000000e+00  0.000000e+00
     vertex  3.000000e+02  0.000000e+00  0.000000e+00
   endloop
 endfacet
 facet normal -0.000000e+00 -0.000000e+00 -1.000000e+00
   outer loop
     vertex  6.000000e+00  2.940000e+02  0.000000e+00
     vertex  6.000000e+00  2.060000e+02  0.000000e+00
     vertex  0.000000e+00  3.000000e+02  0.000000e+00
   endloop
 endfacet
 facet normal  0.000000e+00  0.000000e+00 -1.000000e+00
   outer loop
     vertex  1.940000e+02  9.400000e+01  0.000000e+00
     vertex  1.060000e+02  9.400000e+01  0.000000e+00
     vertex  1.940000e+02  1.060000e+02  0.000000e+00
   endloop
 endfacet
 facet normal  0.000000e+00  0.000000e+00 -1.000000e+00
   outer loop
     vertex  1.060000e+02  9.400000e+01  0.000000e+00
     vertex  1.060000e+02  1.060000e+02  0.000000e+00
     vertex  1.940000e+02  1.060000e+02  0.000000e+00
   endloop
 endfacet
 facet normal  0.000000e+00  0.000000e+00 -1.000000e+00
   outer loop
     vertex  2.060000e+02  9.400000e+01  0.000000e+00
     vertex  1.940000e+02  9.400000e+01  0.000000e+00
     vertex  1.940000e+02  1.060000e+02  0.000000e+00
   endloop
 endfacet
 facet normal  0.000000e+00  0.000000e+00 -1.000000e+00
   outer loop
     vertex  2.060000e+02  9.400000e+01  0.000000e+00
     vertex  1.940000e+02  1.060000e+02  0.000000e+00
     vertex  2.060000e+02  1.060000e+02  0.000000e+00
   endloop
 endfacet
 facet normal  0.000000e+00  0.000000e+00 -1.000000e+00
   outer loop
     vertex  1.060000e+02  1.940000e+02  0.000000e+00
     vertex  9.400000e+01  2.060000e+02  0.000000e+00
     vertex  1.060000e+02  2.060000e+02  0.000000e+00
   endloop
 endfacet
 facet normal  0.000000e+00  0.000000e+00 -1.000000e+00
   outer loop
     vertex  3.000000e+02  0.000000e+00  0.000000e+00
     vertex  2.940000e+02  6.000000e+00  0.000000e+00
     vertex  2.940000e+02  9.400000e+01  0.000000e+00
   endloop
 endfacet
 facet normal  0.000000e+00  0.000000e+00 -1.000000e+00
   outer loop
     vertex  6.000000e+00  2.940000e+02  0.000000e+00
     vertex  0.000000e+00  3.000000e+02  0.000000e+00
     vertex  9.400000e+01  2.940000e+02  0.000000e+00
   endloop
 endfacet
 facet normal  0.000000e+00  0.000000e+00 -1.000000e+00
   outer loop
     vertex  2.940000e+02  9.400000e+01  0.000000e+00
     vertex  2.060000e+02  9.400000e+01  0.000000e+00
     vertex  2.940000e+02  1.060000e+02  0.000000e+00
   endloop
 endfacet
 facet normal  0.000000e+00  0.000000e+00 -1.000000e+00
   outer loop
     vertex  2.060000e+02  9.400000e+01  0.000000e+00
     vertex  2.060000e+02  1.060000e+02  0.000000e+00
     vertex  2.940000e+02  1.060000e+02  0.000000e+00
   endloop
 endfacet
 facet normal  0.000000e+00  0.000000e+00 -1.000000e+00
   outer loop
     vertex  1.940000e+02  1.060000e+02  0.000000e+00
     vertex  1.940000e+02  1.940000e+02  0.000000e+00
     vertex  2.060000e+02  1.940000e+02  0.000000e+00
   endloop
 endfacet
 facet normal  0.000000e+00  0.000000e+00 -1.000000e+00
   outer loop
     vertex  2.060000e+02  1.060000e+02  0.000000e+00
     vertex  1.940000e+02  1.060000e+02  0.000000e+00
     vertex  2.060000e+02  1.940000e+02  0.000000e+00
   endloop
 endfacet
 facet normal  0.000000e+00  0.000000e+00 -1.000000e+00
   outer loop
     vertex  1.060000e+02  1.940000e+02  0.000000e+00
     vertex  1.060000e+02  2.060000e+02  0.000000e+00
     vertex  1.940000e+02  2.060000e+02  0.000000e+00
   endloop
 endfacet
 facet normal  0.000000e+00  0.000000e+00 -1.000000e+00
   outer loop
     vertex  1.940000e+02  1.940000e+02  0.000000e+00
     vertex  1.060000e+02  1.940000e+02  0.000000e+00
     vertex  1.940000e+02  2.060000e+02  0.000000e+00
   endloop
 endfacet
 facet normal  0.000000e+00  0.000000e+00 -1.000000e+00
   outer loop
     vertex  2.060000e+02  1.940000e+02  0.000000e+00
     vertex  1.940000e+02  1.940000e+02  0.000000e+00
     vertex  1.940000e+02  2.060000e+02  0.000000e+00
   endloop
 endfacet
 facet normal  0.000000e+00  0.000000e+00 -1.000000e+00
   outer loop
     vertex  9.400000e+01  2.060000e+02  0.000000e+00
     vertex  9.400000e+01  2.940000e+02  0.000000e+00
     vertex  1.060000e+02  2.940000e+02  0.000000e+00
   endloop
 endfacet
 facet normal  0.000000e+00  0.000000e+00 -1.000000e+00
   outer loop
     vertex  1.060000e+02  2.060000e+02  0.000000e+00
     vertex  9.400000e+01  2.060000e+02  0.000000e+00
     vertex  1.060000e+02  2.940000e+02  0.000000e+00
   endloop
 endfacet
 facet normal  0.000000e+00  0.000000e+00 -1.000000e+00
   outer loop
     vertex  2.060000e+02  1.940000e+02  0.000000e+00
     vertex  1.940000e+02  2.060000e+02  0.000000e+00
     vertex  2.060000e+02  2.060000e+02  0.000000e+00
   endloop
 endfacet
 facet normal  0.000000e+00  0.000000e+00 -1.000000e+00
   outer loop
     vertex  2.060000e+02  2.060000e+02  0.000000e+00
     vertex  1.940000e+02  2.060000e+02  0.000000e+00
     vertex  2.060000e+02  2.940000e+02  0.000000e+00
   endloop
 endfacet
 facet normal  0.000000e+00  0.000000e+00 -1.000000e+00
   outer loop
     vertex  1.940000e+02  2.060000e+02  0.000000e+00
     vertex  1.940000e+02  2.940000e+02  0.000000e+00
     vertex  2.060000e+02  2.940000e+02  0.000000e+00
   endloop
 endfacet
 facet normal -0.000000e+00  0.000000e+00  1.000000e+00
   outer loop
     vertex  2.060000e+02  2.940000e+02  1.000000e-01
     vertex  1.940000e+02  2.060000e+02  1.000000e-01
     vertex  2.060000e+02  2.060000e+02  1.000000e-01
   endloop
 endfacet
 facet normal -0.000000e+00  0.000000e+00  1.000000e+00
   outer loop
     vertex  3.000000e+02  3.000000e+02  1.000000e-01
     vertex  2.060000e+02  2.940000e+02  1.000000e-01
     vertex  2.940000e+02  2.940000e+02  1.000000e-01
   endloop
 endfacet
 facet normal  0.000000e+00  0.000000e+00  1.000000e+00
   outer loop
     vertex  3.000000e+02  3.000000e+02  1.000000e-01
     vertex  2.940000e+02  2.940000e+02  1.000000e-01
     vertex  2.940000e+02  2.060000e+02  1.000000e-01
   endloop
 endfacet
 facet normal -0.000000e+00  0.000000e+00  1.000000e+00
   outer loop
     vertex  0.000000e+00  3.000000e+02  1.000000e-01
     vertex  0.000000e+00  0.000000e+00  1.000000e-01
     vertex  6.000000e+00  9.400000e+01  1.000000e-01
   endloop
 endfacet
 facet normal  0.000000e+00  0.000000e+00  1.000000e+00
   outer loop
     vertex  9.400000e+01  6.000000e+00  1.000000e-01
     vertex  6.000000e+00  6.000000e+00  1.000000e-01
     vertex  0.000000e+00  0.000000e+00  1.000000e-01
   endloop
 endfacet
 facet normal -0.000000e+00  0.000000e+00  1.000000e+00
   outer loop
     vertex  0.000000e+00  3.000000e+02  1.000000e-01
     vertex  6.000000e+00  9.400000e+01  1.000000e-01
     vertex  6.000000e+00  1.060000e+02  1.000000e-01
   endloop
 endfacet
 facet normal -0.000000e+00  0.000000e+00  1.000000e+00
   outer loop
     vertex  0.000000e+00  3.000000e+02  1.000000e-01
     vertex  6.000000e+00  1.060000e+02  1.000000e-01
     vertex  6.000000e+00  1.940000e+02  1.000000e-01
   endloop
 endfacet
 facet normal -0.000000e+00  0.000000e+00  1.000000e+00
   outer loop
     vertex  0.000000e+00  3.000000e+02  1.000000e-01
     vertex  6.000000e+00  1.940000e+02  1.000000e-01
     vertex  6.000000e+00  2.060000e+02  1.000000e-01
   endloop
 endfacet
 facet normal  0.000000e+00 -0.000000e+00  1.000000e+00
   outer loop
     vertex  0.000000e+00  0.000000e+00  1.000000e-01
     vertex  3.000000e+02  0.000000e+00  1.000000e-01
     vertex  1.940000e+02  6.000000e+00  1.000000e-01
   endloop
 endfacet
 facet normal -0.000000e+00  0.000000e+00  1.000000e+00
   outer loop
     vertex  6.000000e+00  9.400000e+01  1.000000e-01
     vertex  0.000000e+00  0.000000e+00  1.000000e-01
     vertex  6.000000e+00  6.000000e+00  1.000000e-01
   endloop
 endfacet
 facet normal  0.000000e+00 -0.000000e+00  1.000000e+00
   outer loop
     vertex  0.000000e+00  0.000000e+00  1.000000e-01
     vertex  1.940000e+02  6.000000e+00  1.000000e-01
     vertex  1.060000e+02  6.000000e+00  1.000000e-01
   endloop
 endfacet
 facet normal  0.000000e+00  0.000000e+00  1.000000e+00
   outer loop
     vertex  3.000000e+02  3.000000e+02  1.000000e-01
     vertex  0.000000e+00  3.000000e+02  1.000000e-01
     vertex  9.400000e+01  2.940000e+02  1.000000e-01
   endloop
 endfacet
 facet normal -0.000000e+00  0.000000e+00  1.000000e+00
   outer loop
     vertex  3.000000e+02  3.000000e+02  1.000000e-01
     vertex  9.400000e+01  2.940000e+02  1.000000e-01
     vertex  1.060000e+02  2.940000e+02  1.000000e-01
   endloop
 endfacet
 facet normal -0.000000e+00  0.000000e+00  1.000000e+00
   outer loop
     vertex  3.000000e+02  3.000000e+02  1.000000e-01
     vertex  1.060000e+02  2.940000e+02  1.000000e-01
     vertex  1.940000e+02  2.940000e+02  1.000000e-01
   endloop
 endfacet
 facet normal -0.000000e+00  0.000000e+00  1.000000e+00
   outer loop
     vertex  3.000000e+02  3.000000e+02  1.000000e-01
     vertex  1.940000e+02  2.940000e+02  1.000000e-01
     vertex  2.060000e+02  2.940000e+02  1.000000e-01
   endloop
 endfacet
 facet normal  0.000000e+00 -0.000000e+00  1.000000e+00
   outer loop
     vertex  3.000000e+02  0.000000e+00  1.000000e-01
     vertex  3.000000e+02  3.000000e+02  1.000000e-01
     vertex  2.940000e+02  2.060000e+02  1.000000e-01
   endloop
 endfacet
 facet normal  0.000000e+00  0.000000e+00  1.000000e+00
   outer loop
     vertex  3.000000e+02  0.000000e+00  1.000000e-01
     vertex  2.940000e+02  2.060000e+02  1.000000e-01
     vertex  2.940000e+02  1.940000e+02  1.000000e-01
   endloop
 endfacet
 facet normal  0.000000e+00  0.000000e+00  1.000000e+00
   outer loop
     vertex  1.060000e+02  6.000000e+00  1.000000e-01
     vertex  9.400000e+01  6.000000e+00  1.000000e-01
     vertex  0.000000e+00  0.000000e+00  1.000000e-01
   endloop
 endfacet
 facet normal  0.000000e+00  0.000000e+00  1.000000e+00
   outer loop
     vertex  3.000000e+02  0.000000e+00  1.000000e-01
     vertex  2.940000e+02  1.940000e+02  1.000000e-01
     vertex  2.940000e+02  1.060000e+02  1.000000e-01
   endloop
 endfacet
 facet normal  0.000000e+00  0.000000e+00  1.000000e+00
   outer loop
     vertex  3.000000e+02  0.000000e+00  1.000000e-01
     vertex  2.940000e+02  1.060000e+02  1.000000e-01
     vertex  2.940000e+02  9.400000e+01  1.000000e-01
   endloop
 endfacet
 facet normal -0.000000e+00  0.000000e+00  1.000000e+00
   outer loop
     vertex  9.400000e+01  1.060000e+02  1.000000e-01
     vertex  6.000000e+00  9.400000e+01  1.000000e-01
     vertex  9.400000e+01  9.400000e+01  1.000000e-01
   endloop
 endfacet
 facet normal  0.000000e+00  0.000000e+00  1.000000e+00
   outer loop
     vertex  9.400000e+01  1.060000e+02  1.000000e-01
     vertex  6.000000e+00  1.060000e+02  1.000000e-01
     vertex  6.000000e+00  9.400000e+01  1.000000e-01
   endloop
 endfacet
 facet normal  0.000000e+00  0.000000e+00  1.000000e+00
   outer loop
     vertex  1.060000e+02  9.400000e+01  1.000000e-01
     vertex  9.400000e+01  9.400000e+01  1.000000e-01
     vertex  9.400000e+01  6.000000e+00  1.000000e-01
   endloop
 endfacet
 facet normal  0.000000e+00  0.000000e+00  1.000000e+00
   outer loop
     vertex  1.060000e+02  9.400000e+01  1.000000e-01
     vertex  9.400000e+01  1.060000e+02  1.000000e-01
     vertex  9.400000e+01  9.400000e+01  1.000000e-01
   endloop
 endfacet
 facet normal -0.000000e+00  0.000000e+00  1.000000e+00
   outer loop
     vertex  1.060000e+02  9.400000e+01  1.000000e-01
     vertex  9.400000e+01  6.000000e+00  1.000000e-01
     vertex  1.060000e+02  6.000000e+00  1.000000e-01
   endloop
 endfacet
 facet normal  0.000000e+00  0.000000e+00  1.000000e+00
   outer loop
     vertex  1.060000e+02  1.060000e+02  1.000000e-01
     vertex  9.400000e+01  1.060000e+02  1.000000e-01
     vertex  1.060000e+02  9.400000e+01  1.000000e-01
   endloop
 endfacet
 facet normal  0.000000e+00  0.000000e+00  1.000000e+00
   outer loop
     vertex  2.060000e+02  9.400000e+01  1.000000e-01
     vertex  1.940000e+02  9.400000e+01  1.000000e-01
     vertex  1.940000e+02  6.000000e+00  1.000000e-01
   endloop
 endfacet
 facet normal -0.000000e+00  0.000000e+00  1.000000e+00
   outer loop
     vertex  2.060000e+02  9.400000e+01  1.000000e-01
     vertex  1.940000e+02  6.000000e+00  1.000000e-01
     vertex  2.060000e+02  6.000000e+00  1.000000e-01
   endloop
 endfacet
 facet normal  0.000000e+00  0.000000e+00  1.000000e+00
   outer loop
     vertex  1.060000e+02  1.940000e+02  1.000000e-01
     vertex  9.400000e+01  1.940000e+02  1.000000e-01
     vertex  9.400000e+01  1.060000e+02  1.000000e-01
   endloop
 endfacet
 facet normal -0.000000e+00  0.000000e+00  1.000000e+00
   outer loop
     vertex  1.060000e+02  1.940000e+02  1.000000e-01
     vertex  9.400000e+01  1.060000e+02  1.000000e-01
     vertex  1.060000e+02  1.060000e+02  1.000000e-01
   endloop
 endfacet
 facet normal  0.000000e+00  0.000000e+00  1.000000e+00
   outer loop
     vertex  3.000000e+02  0.000000e+00  1.000000e-01
     vertex  2.060000e+02  6.000000e+00  1.000000e-01
     vertex  1.940000e+02  6.000000e+00  1.000000e-01
   endloop
 endfacet
 facet normal -0.000000e+00  0.000000e+00  1.000000e+00
   outer loop
     vertex  1.940000e+02  1.060000e+02  1.000000e-01
     vertex  1.060000e+02  9.400000e+01  1.000000e-01
     vertex  1.940000e+02  9.400000e+01  1.000000e-01
   endloop
 endfacet
 facet normal  0.000000e+00  0.000000e+00  1.000000e+00
   outer loop
     vertex  1.940000e+02  1.060000e+02  1.000000e-01
     vertex  1.060000e+02  1.060000e+02  1.000000e-01
     vertex  1.060000e+02  9.400000e+01  1.000000e-01
   endloop
 endfacet
 facet normal -0.000000e+00  0.000000e+00  1.000000e+00
   outer loop
     vertex  1.940000e+02  1.060000e+02  1.000000e-01
     vertex  1.940000e+02  9.400000e+01  1.000000e-01
     vertex  2.060000e+02  9.400000e+01  1.000000e-01
   endloop
 endfacet
 facet normal -0.000000e+00  0.000000e+00  1.000000e+00
   outer loop
     vertex  9.400000e+01  2.060000e+02  1.000000e-01
     vertex  6.000000e+00  1.940000e+02  1.000000e-01
     vertex  9.400000e+01  1.940000e+02  1.000000e-01
   endloop
 endfacet
 facet normal  0.000000e+00  0.000000e+00  1.000000e+00
   outer loop
     vertex  9.400000e+01  2.060000e+02  1.000000e-01
     vertex  6.000000e+00  2.060000e+02  1.000000e-01
     vertex  6.000000e+00  1.940000e+02  1.000000e-01
   endloop
 endfacet
 facet normal -0.000000e+00  0.000000e+00  1.000000e+00
   outer loop
     vertex  9.400000e+01  2.060000e+02  1.000000e-01
     vertex  9.400000e+01  1.940000e+02  1.000000e-01
     vertex  1.060000e+02  1.940000e+02  1.000000e-01
   endloop
 endfacet
 facet normal  0.000000e+00  0.000000e+00  1.000000e+00
   outer loop
     vertex  2.940000e+02  6.000000e+00  1.000000e-01
     vertex  2.060000e+02  6.000000e+00  1.000000e-01
     vertex  3.000000e+02  0.000000e+00  1.000000e-01
   endloop
 endfacet
 facet normal -0.000000e+00  0.000000e+00  1.000000e+00
   outer loop
     vertex  0.000000e+00  3.000000e+02  1.000000e-01
     vertex  6.000000e+00  2.060000e+02  1.000000e-01
     vertex  6.000000e+00  2.940000e+02  1.000000e-01
   endloop
 endfacet
 facet normal  0.000000e+00  0.000000e+00  1.000000e+00
   outer loop
     vertex  1.060000e+02  2.060000e+02  1.000000e-01
     vertex  9.400000e+01  2.060000e+02  1.000000e-01
     vertex  1.060000e+02  1.940000e+02  1.000000e-01
   endloop
 endfacet
 facet normal  0.000000e+00  0.000000e+00  1.000000e+00
   outer loop
     vertex  2.060000e+02  1.060000e+02  1.000000e-01
     vertex  1.940000e+02  1.060000e+02  1.000000e-01
     vertex  2.060000e+02  9.400000e+01  1.000000e-01
   endloop
 endfacet
 facet normal  0.000000e+00  0.000000e+00  1.000000e+00
   outer loop
     vertex  2.940000e+02  9.400000e+01  1.000000e-01
     vertex  2.940000e+02  6.000000e+00  1.000000e-01
     vertex  3.000000e+02  0.000000e+00  1.000000e-01
   endloop
 endfacet
 facet normal  0.000000e+00  0.000000e+00  1.000000e+00
   outer loop
     vertex  9.400000e+01  2.940000e+02  1.000000e-01
     vertex  0.000000e+00  3.000000e+02  1.000000e-01
     vertex  6.000000e+00  2.940000e+02  1.000000e-01
   endloop
 endfacet
 facet normal -0.000000e+00  0.000000e+00  1.000000e+00
   outer loop
     vertex  2.940000e+02  1.060000e+02  1.000000e-01
     vertex  2.060000e+02  9.400000e+01  1.000000e-01
     vertex  2.940000e+02  9.400000e+01  1.000000e-01
   endloop
 endfacet
 facet normal  0.000000e+00  0.000000e+00  1.000000e+00
   outer loop
     vertex  2.940000e+02  1.060000e+02  1.000000e-01
     vertex  2.060000e+02  1.060000e+02  1.000000e-01
     vertex  2.060000e+02  9.400000e+01  1.000000e-01
   endloop
 endfacet
 facet normal  0.000000e+00  0.000000e+00  1.000000e+00
   outer loop
     vertex  1.060000e+02  2.940000e+02  1.000000e-01
     vertex  9.400000e+01  2.940000e+02  1.000000e-01
     vertex  9.400000e+01  2.060000e+02  1.000000e-01
   endloop
 endfacet
 facet normal -0.000000e+00  0.000000e+00  1.000000e+00
   outer loop
     vertex  1.060000e+02  2.940000e+02  1.000000e-01
     vertex  9.400000e+01  2.060000e+02  1.000000e-01
     vertex  1.060000e+02  2.060000e+02  1.000000e-01
   endloop
 endfacet
 facet normal -0.000000e+00  0.000000e+00  1.000000e+00
   outer loop
     vertex  2.060000e+02  1.940000e+02  1.000000e-01
     vertex  1.940000e+02  1.060000e+02  1.000000e-01
     vertex  2.060000e+02  1.060000e+02  1.000000e-01
   endloop
 endfacet
 facet normal  0.000000e+00  0.000000e+00  1.000000e+00
   outer loop
     vertex  2.060000e+02  1.940000e+02  1.000000e-01
     vertex  1.940000e+02  1.940000e+02  1.000000e-01
     vertex  1.940000e+02  1.060000e+02  1.000000e-01
   endloop
 endfacet
 facet normal -0.000000e+00  0.000000e+00  1.000000e+00
   outer loop
     vertex  1.940000e+02  2.060000e+02  1.000000e-01
     vertex  1.940000e+02  1.940000e+02  1.000000e-01
     vertex  2.060000e+02  1.940000e+02  1.000000e-01
   endloop
 endfacet
 facet normal -0.000000e+00  0.000000e+00  1.000000e+00
   outer loop
     vertex  1.940000e+02  2.060000e+02  1.000000e-01
     vertex  1.060000e+02  1.940000e+02  1.000000e-01
     vertex  1.940000e+02  1.940000e+02  1.000000e-01
   endloop
 endfacet
 facet normal  0.000000e+00  0.000000e+00  1.000000e+00
   outer loop
     vertex  1.940000e+02  2.060000e+02  1.000000e-01
     vertex  1.060000e+02  2.060000e+02  1.000000e-01
     vertex  1.060000e+02  1.940000e+02  1.000000e-01
   endloop
 endfacet
 facet normal  0.000000e+00  0.000000e+00  1.000000e+00
   outer loop
     vertex  2.060000e+02  2.060000e+02  1.000000e-01
     vertex  1.940000e+02  2.060000e+02  1.000000e-01
     vertex  2.060000e+02  1.940000e+02  1.000000e-01
   endloop
 endfacet
 facet normal  0.000000e+00  0.000000e+00  1.000000e+00
   outer loop
     vertex  2.940000e+02  2.060000e+02  1.000000e-01
     vertex  2.060000e+02  2.060000e+02  1.000000e-01
     vertex  2.060000e+02  1.940000e+02  1.000000e-01
   endloop
 endfacet
 facet normal -0.000000e+00  0.000000e+00  1.000000e+00
   outer loop
     vertex  2.940000e+02  2.060000e+02  1.000000e-01
     vertex  2.060000e+02  1.940000e+02  1.000000e-01
     vertex  2.940000e+02  1.940000e+02  1.000000e-01
   endloop
 endfacet
 facet normal  0.000000e+00  0.000000e+00  1.000000e+00
   outer loop
     vertex  2.060000e+02  2.940000e+02  1.000000e-01
     vertex  1.940000e+02  2.940000e+02  1.000000e-01
     vertex  1.940000e+02  2.060000e+02  1.000000e-01
   endloop
 endfacet
 facet normal  1.000000e+00 -0.000000e+00  0.000000e+00
   outer loop
     vertex  3.000000e+02  0.000000e+00  1.000000e-01
     vertex  3.000000e+02  3.000000e+02  0.000000e+00
     vertex  3.000000e+02  3.000000e+02  1.000000e-01
   endloop
 endfacet
 facet normal  1.000000e+00  0.000000e+00 -0.000000e+00
   outer loop
     vertex  3.000000e+02  0.000000e+00  0.000000e+00
     vertex  3.000000e+02  3.000000e+02  0.000000e+00
     vertex  3.000000e+02  0.000000e+00  1.000000e-01
   endloop
 endfacet
 facet normal  1.000000e+00 -0.000000e+00  0.000000e+00
   outer loop
     vertex  1.060000e+02  1.060000e+02  1.000000e-01
     vertex  1.060000e+02  1.940000e+02  0.000000e+00
     vertex  1.060000e+02  1.940000e+02  1.000000e-01
   endloop
 endfacet
 facet normal  1.000000e+00  0.000000e+00 -0.000000e+00
   outer loop
     vertex  1.060000e+02  1.060000e+02  0.000000e+00
     vertex  1.060000e+02  1.940000e+02  0.000000e+00
     vertex  1.060000e+02  1.060000e+02  1.000000e-01
   endloop
 endfacet
 facet normal  0.000000e+00  1.000000e+00  0.000000e+00
   outer loop
     vertex  1.940000e+02  1.060000e+02  1.000000e-01
     vertex  1.940000e+02  1.060000e+02  0.000000e+00
     vertex  1.060000e+02  1.060000e+02  1.000000e-01
   endloop
 endfacet
 facet normal  0.000000e+00  1.000000e+00  0.000000e+00
   outer loop
     vertex  1.060000e+02  1.060000e+02  1.000000e-01
     vertex  1.940000e+02  1.060000e+02  0.000000e+00
     vertex  1.060000e+02  1.060000e+02  0.000000e+00
   endloop
 endfacet
 facet normal -1.000000e+00 -0.000000e+00  0.000000e+00
   outer loop
     vertex  1.940000e+02  1.940000e+02  1.000000e-01
     vertex  1.940000e+02  1.060000e+02  0.000000e+00
     vertex  1.940000e+02  1.060000e+02  1.000000e-01
   endloop
 endfacet
 facet normal -1.000000e+00  0.000000e+00  0.000000e+00
   outer loop
     vertex  1.940000e+02  1.940000e+02  0.000000e+00
     vertex  1.940000e+02  1.060000e+02  0.000000e+00
     vertex  1.940000e+02  1.940000e+02  1.000000e-01
   endloop
 endfacet
 facet normal  0.000000e+00 -1.000000e+00  0.000000e+00
   outer loop
     vertex  1.060000e+02  1.940000e+02  1.000000e-01
     vertex  1.060000e+02  1.940000e+02  0.000000e+00
     vertex  1.940000e+02  1.940000e+02  1.000000e-01
   endloop
 endfacet
 facet normal  0.000000e+00 -1.000000e+00 -0.000000e+00
   outer loop
     vertex  1.940000e+02  1.940000e+02  1.000000e-01
     vertex  1.060000e+02  1.940000e+02  0.000000e+00
     vertex  1.940000e+02  1.940000e+02  0.000000e+00
   endloop
 endfacet
 facet normal -1.000000e+00 -0.000000e+00  0.000000e+00
   outer loop
     vertex  9.400000e+01  1.940000e+02  1.000000e-01
     vertex  9.400000e+01  1.060000e+02  0.000000e+00
     vertex  9.400000e+01  1.060000e+02  1.000000e-01
   endloop
 endfacet
 facet normal -1.000000e+00  0.000000e+00  0.000000e+00
   outer loop
     vertex  9.400000e+01  1.940000e+02  0.000000e+00
     vertex  9.400000e+01  1.060000e+02  0.000000e+00
     vertex  9.400000e+01  1.940000e+02  1.000000e-01
   endloop
 endfacet
 facet normal  0.000000e+00 -1.000000e+00  0.000000e+00
   outer loop
     vertex  6.000000e+00  1.940000e+02  1.000000e-01
     vertex  6.000000e+00  1.940000e+02  0.000000e+00
     vertex  9.400000e+01  1.940000e+02  1.000000e-01
   endloop
 endfacet
 facet normal  0.000000e+00 -1.000000e+00 -0.000000e+00
   outer loop
     vertex  9.400000e+01  1.940000e+02  1.000000e-01
     vertex  6.000000e+00  1.940000e+02  0.000000e+00
     vertex  9.400000e+01  1.940000e+02  0.000000e+00
   endloop
 endfacet
 facet normal  1.000000e+00 -0.000000e+00  0.000000e+00
   outer loop
     vertex  6.000000e+00  1.060000e+02  1.000000e-01
     vertex  6.000000e+00  1.940000e+02  0.000000e+00
     vertex  6.000000e+00  1.940000e+02  1.000000e-01
   endloop
 endfacet
 facet normal  1.000000e+00  0.000000e+00 -0.000000e+00
   outer loop
     vertex  6.000000e+00  1.060000e+02  0.000000e+00
     vertex  6.000000e+00  1.940000e+02  0.000000e+00
     vertex  6.000000e+00  1.060000e+02  1.000000e-01
   endloop
 endfacet
 facet normal  0.000000e+00  1.000000e+00  0.000000e+00
   outer loop
     vertex  9.400000e+01  1.060000e+02  1.000000e-01
     vertex  9.400000e+01  1.060000e+02  0.000000e+00
     vertex  6.000000e+00  1.060000e+02  1.000000e-01
   endloop
 endfacet
 facet normal  0.000000e+00  1.000000e+00  0.000000e+00
   outer loop
     vertex  6.000000e+00  1.060000e+02  1.000000e-01
     vertex  9.400000e+01  1.060000e+02  0.000000e+00
     vertex  6.000000e+00  1.060000e+02  0.000000e+00
   endloop
 endfacet
 facet normal -1.000000e+00 -0.000000e+00  0.000000e+00
   outer loop
     vertex  2.940000e+02  2.940000e+02  1.000000e-01
     vertex  2.940000e+02  2.060000e+02  0.000000e+00
     vertex  2.940000e+02  2.060000e+02  1.000000e-01
   endloop
 endfacet
 facet normal -1.000000e+00  0.000000e+00  0.000000e+00
   outer loop
     vertex  2.940000e+02  2.940000e+02  0.000000e+00
     vertex  2.940000e+02  2.060000e+02  0.000000e+00
     vertex  2.940000e+02  2.940000e+02  1.000000e-01
   endloop
 endfacet
 facet normal  0.000000e+00 -1.000000e+00  0.000000e+00
   outer loop
     vertex  2.060000e+02  2.940000e+02  1.000000e-01
     vertex  2.060000e+02  2.940000e+02  0.000000e+00
     vertex  2.940000e+02  2.940000e+02  1.000000e-01
   endloop
 endfacet
 facet normal  0.000000e+00 -1.000000e+00 -0.000000e+00
   outer loop
     vertex  2.940000e+02  2.940000e+02  1.000000e-01
     vertex  2.060000e+02  2.940000e+02  0.000000e+00
     vertex  2.940000e+02  2.940000e+02  0.000000e+00
   endloop
 endfacet
 facet normal  1.000000e+00 -0.000000e+00  0.000000e+00
   outer loop
     vertex  2.060000e+02  2.060000e+02  1.000000e-01
     vertex  2.060000e+02  2.940000e+02  0.000000e+00
     vertex  2.060000e+02  2.940000e+02  1.000000e-01
   endloop
 endfacet
 facet normal  1.000000e+00  0.000000e+00 -0.000000e+00
   outer loop
     vertex  2.060000e+02  2.060000e+02  0.000000e+00
     vertex  2.060000e+02  2.940000e+02  0.000000e+00
     vertex  2.060000e+02  2.060000e+02  1.000000e-01
   endloop
 endfacet
 facet normal  0.000000e+00  1.000000e+00  0.000000e+00
   outer loop
     vertex  2.940000e+02  2.060000e+02  1.000000e-01
     vertex  2.940000e+02  2.060000e+02  0.000000e+00
     vertex  2.060000e+02  2.060000e+02  1.000000e-01
   endloop
 endfacet
 facet normal  0.000000e+00  1.000000e+00  0.000000e+00
   outer loop
     vertex  2.060000e+02  2.060000e+02  1.000000e-01
     vertex  2.940000e+02  2.060000e+02  0.000000e+00
     vertex  2.060000e+02  2.060000e+02  0.000000e+00
   endloop
 endfacet
 facet normal  1.000000e+00 -0.000000e+00  0.000000e+00
   outer loop
     vertex  6.000000e+00  2.060000e+02  1.000000e-01
     vertex  6.000000e+00  2.940000e+02  0.000000e+00
     vertex  6.000000e+00  2.940000e+02  1.000000e-01
   endloop
 endfacet
 facet normal  1.000000e+00  0.000000e+00 -0.000000e+00
   outer loop
     vertex  6.000000e+00  2.060000e+02  0.000000e+00
     vertex  6.000000e+00  2.940000e+02  0.000000e+00
     vertex  6.000000e+00  2.060000e+02  1.000000e-01
   endloop
 endfacet
 facet normal  0.000000e+00  1.000000e+00  0.000000e+00
   outer loop
     vertex  9.400000e+01  2.060000e+02  1.000000e-01
     vertex  9.400000e+01  2.060000e+02  0.000000e+00
     vertex  6.000000e+00  2.060000e+02  1.000000e-01
   endloop
 endfacet
 facet normal  0.000000e+00  1.000000e+00  0.000000e+00
   outer loop
     vertex  6.000000e+00  2.060000e+02  1.000000e-01
     vertex  9.400000e+01  2.060000e+02  0.000000e+00
     vertex  6.000000e+00  2.060000e+02  0.000000e+00
   endloop
 endfacet
 facet normal -1.000000e+00 -0.000000e+00  0.000000e+00
   outer loop
     vertex  9.400000e+01  2.940000e+02  1.000000e-01
     vertex  9.400000e+01  2.060000e+02  0.000000e+00
     vertex  9.400000e+01  2.060000e+02  1.000000e-01
   endloop
 endfacet
 facet normal -1.000000e+00  0.000000e+00  0.000000e+00
   outer loop
     vertex  9.400000e+01  2.940000e+02  0.000000e+00
     vertex  9.400000e+01  2.060000e+02  0.000000e+00
     vertex  9.400000e+01  2.940000e+02  1.000000e-01
   endloop
 endfacet
 facet normal  0.000000e+00 -1.000000e+00  0.000000e+00
   outer loop
     vertex  6.000000e+00  2.940000e+02  1.000000e-01
     vertex  6.000000e+00  2.940000e+02  0.000000e+00
     vertex  9.400000e+01  2.940000e+02  1.000000e-01
   endloop
 endfacet
 facet normal  0.000000e+00 -1.000000e+00 -0.000000e+00
   outer loop
     vertex  9.400000e+01  2.940000e+02  1.000000e-01
     vertex  6.000000e+00  2.940000e+02  0.000000e+00
     vertex  9.400000e+01  2.940000e+02  0.000000e+00
   endloop
 endfacet
 facet normal  1.000000e+00 -0.000000e+00  0.000000e+00
   outer loop
     vertex  1.060000e+02  6.000000e+00  1.000000e-01
     vertex  1.060000e+02  9.400000e+01  0.000000e+00
     vertex  1.060000e+02  9.400000e+01  1.000000e-01
   endloop
 endfacet
 facet normal  1.000000e+00  0.000000e+00 -0.000000e+00
   outer loop
     vertex  1.060000e+02  6.000000e+00  0.000000e+00
     vertex  1.060000e+02  9.400000e+01  0.000000e+00
     vertex  1.060000e+02  6.000000e+00  1.000000e-01
   endloop
 endfacet
 facet normal  0.000000e+00  1.000000e+00  0.000000e+00
   outer loop
     vertex  1.940000e+02  6.000000e+00  1.000000e-01
     vertex  1.940000e+02  6.000000e+00  0.000000e+00
     vertex  1.060000e+02  6.000000e+00  1.000000e-01
   endloop
 endfacet
 facet normal  0.000000e+00  1.000000e+00  0.000000e+00
   outer loop
     vertex  1.060000e+02  6.000000e+00  1.000000e-01
     vertex  1.940000e+02  6.000000e+00  0.000000e+00
     vertex  1.060000e+02  6.000000e+00  0.000000e+00
   endloop
 endfacet
 facet normal -1.000000e+00 -0.000000e+00  0.000000e+00
   outer loop
     vertex  1.940000e+02  9.400000e+01  1.000000e-01
     vertex  1.940000e+02  6.000000e+00  0.000000e+00
     vertex  1.940000e+02  6.000000e+00  1.000000e-01
   endloop
 endfacet
 facet normal -1.000000e+00  0.000000e+00  0.000000e+00
   outer loop
     vertex  1.940000e+02  9.400000e+01  0.000000e+00
     vertex  1.940000e+02  6.000000e+00  0.000000e+00
     vertex  1.940000e+02  9.400000e+01  1.000000e-01
   endloop
 endfacet
 facet normal  0.000000e+00 -1.000000e+00  0.000000e+00
   outer loop
     vertex  1.060000e+02  9.400000e+01  1.000000e-01
     vertex  1.060000e+02  9.400000e+01  0.000000e+00
     vertex  1.940000e+02  9.400000e+01  1.000000e-01
   endloop
 endfacet
 facet normal  0.000000e+00 -1.000000e+00 -0.000000e+00
   outer loop
     vertex  1.940000e+02  9.400000e+01  1.000000e-01
     vertex  1.060000e+02  9.400000e+01  0.000000e+00
     vertex  1.940000e+02  9.400000e+01  0.000000e+00
   endloop
 endfacet
 facet normal  1.000000e+00 -0.000000e+00  0.000000e+00
   outer loop
     vertex  2.060000e+02  6.000000e+00  1.000000e-01
     vertex  2.060000e+02  9.400000e+01  0.000000e+00
     vertex  2.060000e+02  9.400000e+01  1.000000e-01
   endloop
 endfacet
 facet normal  1.000000e+00  0.000000e+00 -0.000000e+00
   outer loop
     vertex  2.060000e+02  6.000000e+00  0.000000e+00
     vertex  2.060000e+02  9.400000e+01  0.000000e+00
     vertex  2.060000e+02  6.000000e+00  1.000000e-01
   endloop
 endfacet
 facet normal  0.000000e+00  1.000000e+00  0.000000e+00
   outer loop
     vertex  2.940000e+02  6.000000e+00  1.000000e-01
     vertex  2.940000e+02  6.000000e+00  0.000000e+00
     vertex  2.060000e+02  6.000000e+00  1.000000e-01
   endloop
 endfacet
 facet normal  0.000000e+00  1.000000e+00  0.000000e+00
   outer loop
     vertex  2.060000e+02  6.000000e+00  1.000000e-01
     vertex  2.940000e+02  6.000000e+00  0.000000e+00
     vertex  2.060000e+02  6.000000e+00  0.000000e+00
   endloop
 endfacet
 facet normal -1.000000e+00 -0.000000e+00  0.000000e+00
   outer loop
     vertex  2.940000e+02  9.400000e+01  1.000000e-01
     vertex  2.940000e+02  6.000000e+00  0.000000e+00
     vertex  2.940000e+02  6.000000e+00  1.000000e-01
   endloop
 endfacet
 facet normal -1.000000e+00  0.000000e+00  0.000000e+00
   outer loop
     vertex  2.940000e+02  9.400000e+01  0.000000e+00
     vertex  2.940000e+02  6.000000e+00  0.000000e+00
     vertex  2.940000e+02  9.400000e+01  1.000000e-01
   endloop
 endfacet
 facet normal  0.000000e+00 -1.000000e+00  0.000000e+00
   outer loop
     vertex  2.060000e+02  9.400000e+01  1.000000e-01
     vertex  2.060000e+02  9.400000e+01  0.000000e+00
     vertex  2.940000e+02  9.400000e+01  1.000000e-01
   endloop
 endfacet
 facet normal  0.000000e+00 -1.000000e+00 -0.000000e+00
   outer loop
     vertex  2.940000e+02  9.400000e+01  1.000000e-01
     vertex  2.060000e+02  9.400000e+01  0.000000e+00
     vertex  2.940000e+02  9.400000e+01  0.000000e+00
   endloop
 endfacet
 facet normal  1.000000e+00 -0.000000e+00  0.000000e+00
   outer loop
     vertex  2.060000e+02  1.060000e+02  1.000000e-01
     vertex  2.060000e+02  1.940000e+02  0.000000e+00
     vertex  2.060000e+02  1.940000e+02  1.000000e-01
   endloop
 endfacet
 facet normal  1.000000e+00  0.000000e+00 -0.000000e+00
   outer loop
     vertex  2.060000e+02  1.060000e+02  0.000000e+00
     vertex  2.060000e+02  1.940000e+02  0.000000e+00
     vertex  2.060000e+02  1.060000e+02  1.000000e-01
   endloop
 endfacet
 facet normal  0.000000e+00  1.000000e+00  0.000000e+00
   outer loop
     vertex  2.940000e+02  1.060000e+02  1.000000e-01
     vertex  2.940000e+02  1.060000e+02  0.000000e+00
     vertex  2.060000e+02  1.060000e+02  1.000000e-01
   endloop
 endfacet
 facet normal  0.000000e+00  1.000000e+00  0.000000e+00
   outer loop
     vertex  2.060000e+02  1.060000e+02  1.000000e-01
     vertex  2.940000e+02  1.060000e+02  0.000000e+00
     vertex  2.060000e+02  1.060000e+02  0.000000e+00
   endloop
 endfacet
 facet normal -1.000000e+00 -0.000000e+00  0.000000e+00
   outer loop
     vertex  2.940000e+02  1.940000e+02  1.000000e-01
     vertex  2.940000e+02  1.060000e+02  0.000000e+00
     vertex  2.940000e+02  1.060000e+02  1.000000e-01
   endloop
 endfacet
 facet normal -1.000000e+00  0.000000e+00  0.000000e+00
   outer loop
     vertex  2.940000e+02  1.940000e+02  0.000000e+00
     vertex  2.940000e+02  1.060000e+02  0.000000e+00
     vertex  2.940000e+02  1.940000e+02  1.000000e-01
   endloop
 endfacet
 facet normal  0.000000e+00 -1.000000e+00  0.000000e+00
   outer loop
     vertex  2.060000e+02  1.940000e+02  1.000000e-01
     vertex  2.060000e+02  1.940000e+02  0.000000e+00
     vertex  2.940000e+02  1.940000e+02  1.000000e-01
   endloop
 endfacet
 facet normal  0.000000e+00 -1.000000e+00 -0.000000e+00
   outer loop
     vertex  2.940000e+02  1.940000e+02  1.000000e-01
     vertex  2.060000e+02  1.940000e+02  0.000000e+00
     vertex  2.940000e+02  1.940000e+02  0.000000e+00
   endloop
 endfacet
 facet normal -1.000000e+00 -0.000000e+00  0.000000e+00
   outer loop
     vertex  9.400000e+01  9.400000e+01  1.000000e-01
     vertex  9.400000e+01  6.000000e+00  0.000000e+00
     vertex  9.400000e+01  6.000000e+00  1.000000e-01
   endloop
 endfacet
 facet normal -1.000000e+00  0.000000e+00  0.000000e+00
   outer loop
     vertex  9.400000e+01  9.400000e+01  0.000000e+00
     vertex  9.400000e+01  6.000000e+00  0.000000e+00
     vertex  9.400000e+01  9.400000e+01  1.000000e-01
   endloop
 endfacet
 facet normal  0.000000e+00 -1.000000e+00  0.000000e+00
   outer loop
     vertex  6.000000e+00  9.400000e+01  1.000000e-01
     vertex  6.000000e+00  9.400000e+01  0.000000e+00
     vertex  9.400000e+01  9.400000e+01  1.000000e-01
   endloop
 endfacet
 facet normal  0.000000e+00 -1.000000e+00 -0.000000e+00
   outer loop
     vertex  9.400000e+01  9.400000e+01  1.000000e-01
     vertex  6.000000e+00  9.400000e+01  0.000000e+00
     vertex  9.400000e+01  9.400000e+01  0.000000e+00
   endloop
 endfacet
 facet normal  1.000000e+00 -0.000000e+00  0.000000e+00
   outer loop
     vertex  6.000000e+00  6.000000e+00  1.000000e-01
     vertex  6.000000e+00  9.400000e+01  0.000000e+00
     vertex  6.000000e+00  9.400000e+01  1.000000e-01
   endloop
 endfacet
 facet normal  1.000000e+00  0.000000e+00 -0.000000e+00
   outer loop
     vertex  6.000000e+00  6.000000e+00  0.000000e+00
     vertex  6.000000e+00  9.400000e+01  0.000000e+00
     vertex  6.000000e+00  6.000000e+00  1.000000e-01
   endloop
 endfacet
 facet normal  0.000000e+00  1.000000e+00  0.000000e+00
   outer loop
     vertex  9.400000e+01  6.000000e+00  1.000000e-01
     vertex  9.400000e+01  6.000000e+00  0.000000e+00
     vertex  6.000000e+00  6.000000e+00  1.000000e-01
   endloop
 endfacet
 facet normal  0.000000e+00  1.000000e+00  0.000000e+00
   outer loop
     vertex  6.000000e+00  6.000000e+00  1.000000e-01
     vertex  9.400000e+01  6.000000e+00  0.000000e+00
     vertex  6.000000e+00  6.000000e+00  0.000000e+00
   endloop
 endfacet
 facet normal  1.000000e+00 -0.000000e+00  0.000000e+00
   outer loop
     vertex  1.060000e+02  2.060000e+02  1.000000e-01
     vertex  1.060000e+02  2.940000e+02  0.000000e+00
     vertex  1.060000e+02  2.940000e+02  1.000000e-01
   endloop
 endfacet
 facet normal  1.000000e+00  0.000000e+00 -0.000000e+00
   outer loop
     vertex  1.060000e+02  2.060000e+02  0.000000e+00
     vertex  1.060000e+02  2.940000e+02  0.000000e+00
     vertex  1.060000e+02  2.060000e+02  1.000000e-01
   endloop
 endfacet
 facet normal  0.000000e+00  1.000000e+00  0.000000e+00
   outer loop
     vertex  1.940000e+02  2.060000e+02  1.000000e-01
     vertex  1.940000e+02  2.060000e+02  0.000000e+00
     vertex  1.060000e+02  2.060000e+02  1.000000e-01
   endloop
 endfacet
 facet normal  0.000000e+00  1.000000e+00  0.000000e+00
   outer loop
     vertex  1.060000e+02  2.060000e+02  1.000000e-01
     vertex  1.940000e+02  2.060000e+02  0.000000e+00
     vertex  1.060000e+02  2.060000e+02  0.000000e+00
   endloop
 endfacet
 facet normal -1.000000e+00 -0.000000e+00  0.000000e+00
   outer loop
     vertex  1.940000e+02  2.940000e+02  1.000000e-01
     vertex  1.940000e+02  2.060000e+02  0.000000e+00
     vertex  1.940000e+02  2.060000e+02  1.000000e-01
   endloop
 endfacet
 facet normal -1.000000e+00  0.000000e+00  0.000000e+00
   outer loop
     vertex  1.940000e+02  2.940000e+02  0.000000e+00
     vertex  1.940000e+02  2.060000e+02  0.000000e+00
     vertex  1.940000e+02  2.940000e+02  1.000000e-01
   endloop
 endfacet
 facet normal  0.000000e+00 -1.000000e+00  0.000000e+00
   outer loop
     vertex  1.060000e+02  2.940000e+02  1.000000e-01
     vertex  1.060000e+02  2.940000e+02  0.000000e+00
     vertex  1.940000e+02  2.940000e+02  1.000000e-01
   endloop
 endfacet
 facet normal  0.000000e+00 -1.000000e+00 -0.000000e+00
   outer loop
     vertex  1.940000e+02  2.940000e+02  1.000000e-01
     vertex  1.060000e+02  2.940000e+02  0.000000e+00
     vertex  1.940000e+02  2.940000e+02  0.000000e+00
   endloop
 endfacet
endsolid
